Reproducible Research: Peer Assessment 1
…
Loading and preprocessing the data

Show any code that is needed to

Load the data (i.e.read.csv())

Process/transform the data (if necessary) into a format suitable for your analysis

rm(list=ls())
library(lubridate); library(dplyr); library(ggplot2)
activitylog=tbl_df(read.csv('activity.csv',header=T,stringsAsFactors=F)) %>%
  mutate(date=ymd(date))
activitylog

## # A tibble: 17,568 x 3
##    steps date       interval
##    <int> <date>        <int>
##  1    NA 2012-10-01        0
##  2    NA 2012-10-01        5
##  3    NA 2012-10-01       10
##  4    NA 2012-10-01       15
##  5    NA 2012-10-01       20
##  6    NA 2012-10-01       25
##  7    NA 2012-10-01       30
##  8    NA 2012-10-01       35
##  9    NA 2012-10-01       40
## 10    NA 2012-10-01       45
## # ... with 17,558 more rows
…
Create a new dataset that is equal to the original dataset but with the missing data filled in

Make a histogram of the total number of steps taken each day and Calculate and report the mean and median total number of steps taken per day. Do these values differ from the estimates from the first part of the assignment? What is the impact of imputing missing data on the estimates of the total daily number of steps?

miss<-sum(is.na(activitylog$steps))

There are 2304 missing values in the dataset.

activitylog_modified<- tbl_df(merge(activitylog,activity_interval,by='interval')) %>%
  arrange(date,interval) %>%
  mutate(steps=ifelse(is.na(steps),intervalmean,steps)) %>%
  select(steps,date,interval)
activitylog_modified

## # A tibble: 17,568 x 3
##     steps date       interval
##     <dbl> <date>        <int>
##  1 1.72   2012-10-01        0
##  2 0.340  2012-10-01        5
##  3 0.132  2012-10-01       10
##  4 0.151  2012-10-01       15
##  5 0.0755 2012-10-01       20
##  6 2.09   2012-10-01       25
##  7 0.528  2012-10-01       30
##  8 0.868  2012-10-01       35
##  9 0      2012-10-01       40
## 10 1.47   2012-10-01       45
## # ... with 17,558 more rows
…
Are there differences in activity patterns between weekdays and weekends?

For this part the weekdays() function may be of some help here. Use the dataset with the filled-in missing values for this part.

Create a new factor variable in the dataset with two levels  weekday and weekend indicating whether a given date is a weekday or weekend day.

Make a panel plot containing a time series plot (i.e.type=l) of the 5-minute interval (x-axis) and the average number of steps taken, averaged across all weekday days or weekend days (y-axis).

activity_week_modified<- activitylog_modified %>%
  mutate(ind=lubridate::wday(date,label=F,week_start=getOption("lubridate.week.start", 1))) %>%
  mutate(ind=as.factor(ifelse(ind<=5,'weekday','weekend')))
activity_week_modified

## # A tibble: 17,568 x 4
##     steps date       interval ind    
##     <dbl> <date>        <int> <fct>  
##  1 1.72   2012-10-01        0 weekday
##  2 0.340  2012-10-01        5 weekday
##  3 0.132  2012-10-01       10 weekday
##  4 0.151  2012-10-01       15 weekday
##  5 0.0755 2012-10-01       20 weekday
##  6 2.09   2012-10-01       25 weekday
##  7 0.528  2012-10-01       30 weekday
##  8 0.868  2012-10-01       35 weekday
##  9 0      2012-10-01       40 weekday
## 10 1.47   2012-10-01       45 weekday
## # ... with 17,558 more rows
…
